%YAML 1.1
%TAG !u! tag:unity3d.com,2011:
--- !u!1045 &1
EditorBuildSettings:
  m_ObjectHideFlags: 0
  serializedVersion: 2
  m_Scenes:
  - enabled: 1
    path: Assets/Start.unity
  - enabled: 1
    path: Assets/Game.unity
  - enabled: 1
    path: Assets/Win.unity
  - enabled: 1
    path: Assets/Lose.unity
  - enabled: 1
    path: Assets/Derp.unity
  - enabled: 1
    path: Assets/Bye.unity
